<?xml version="1.0" encoding="UTF-8"?>
<svg width="385px" height="467px" viewBox="0 0 385 467" version="1.1" xmlns="http://www.w3.org/2000/svg" xmlns:xlink="http://www.w3.org/1999/xlink">
    <!-- Generator: Sketch 51.1 (57501) - http://www.bohemiancoding.com/sketch -->
    <title>artist</title>
    <desc>Created with Sketch.</desc>
    <defs></defs>
    <g id="MUGS" stroke="none" stroke-width="1" fill="none" fill-rule="evenodd">
        <g id="artist_DL" transform="translate(-208.000000, -218.000000)">
            <g id="artist" transform="translate(208.000000, 218.000000)">
                <path d="M267.935514,291.911386 L46.1328125,316.183594 L39.2421875,257.128906 L7.7265625,251.917969 L33.3326216,207.618344 C19.9099235,186.073307 12,159.607527 12,131 C12,58.6506978 62.5918233,0 125,0 C156.032767,0 184.143795,14.50211 204.565545,37.9793622 C222.020313,27.1614468 242.114959,21 263.5,21 C330.602597,21 385,81.6654164 385,156.5 C385,222.284292 342.964338,277.119343 287.2144,289.420397 L288.007812,289.714844 L283.018335,290.26085 C278.083922,291.149483 273.049999,291.706707 267.935514,291.911386 Z" id="Combined-Shape" fill="#FFFFFF"></path>
                <path d="M87.1858399,0.350390676 C82.5827408,0.81832455 78.0728718,1.65791882 73.6539865,3.01806154 C69.591173,4.26849728 65.6463013,5.91298259 61.7811807,7.6750111 C57.6700673,9.55122443 53.6858816,11.6759577 49.8465959,14.0548081 C46.2050031,16.3161153 42.7948008,18.922216 39.5968937,21.7734781 C36.1002008,24.8911715 33.1729981,28.5462052 30.4389954,32.3288573 C25.1518339,39.6366858 21.4361062,48.0147172 18.1887759,56.3759567 C16.5870142,60.5034021 15.1705896,64.6845816 13.7485488,68.8735973 C12.0333383,73.9156408 10.3922627,78.9699983 8.76017314,84.0389088 C7.24153233,88.7742204 5.89474954,93.5587883 4.49966678,98.3288033 C2.56879137,104.928014 1.46350841,111.780223 0.628929919,118.588773 C0.203216259,122.069171 0.0324814934,125.576436 0.00215360736,129.074745 C-0.037160319,133.408171 0.467181193,137.681146 1.07261566,141.961958 C1.77015704,146.88198 3.14839097,151.599381 4.6490597,156.3179 C5.5959637,159.295661 6.80233961,162.270064 8.37377341,164.972438 C10.6112974,168.828975 15.758052,170.149936 19.6063238,167.90654 C21.4405993,166.839696 22.8132169,165.064234 23.3793375,163.017863 C23.9802789,160.834918 23.5994954,158.683317 22.5503752,156.71195 C22.2549592,156.162296 21.985378,155.603686 21.725906,155.040598 C21.0867739,153.241627 20.4745999,151.447134 19.8961236,149.623535 C18.5605733,145.395339 17.5271787,141.127961 16.8498559,136.754234 C16.097275,130.002777 16.2949679,123.218855 17.1037116,116.48307 C18.7144593,105.636632 21.8517106,95.1036418 25.0518642,84.6288637 C26.1346821,81.0824175 27.2455813,77.5494048 28.3946712,74.0253477 C30.3884489,67.8884733 32.3732405,61.7594352 34.8140737,55.7815239 C37.6233346,49.3770988 40.84483,43.2267909 45.0255853,37.6082261 C47.6225509,34.4479932 50.5261652,31.5944922 53.7105933,29.0264532 C59.4144823,24.8542294 65.6575338,21.4242069 72.1196201,18.5651085 C77.0765446,16.559038 82.1311922,15.0444099 87.4250932,14.2092935 C94.343221,13.4323889 101.295046,13.7749433 108.242379,13.9898795 C112.498392,14.1163784 116.758899,14.2563107 121.014912,14.3917653 C125.121532,14.522742 129.229276,14.7679035 133.331403,14.9694061 C135.034258,15.0522461 136.740482,15.300766 138.438844,15.4720432 C140.252901,15.6578734 142.069204,15.8403453 143.884384,16.025056 C147.144071,16.5825466 150.40488,17.1389177 153.669059,17.6975278 C155.177591,17.9561228 156.682752,18.388234 158.178928,18.7341468 C160.026683,19.1628997 161.873314,19.5871746 163.725561,20.0103301 C165.463237,20.4133354 167.18294,20.9864984 168.898151,21.4712242 C170.320192,21.8742294 171.772561,22.2190228 173.167643,22.6869567 C177.810056,24.2329296 182.451346,25.7318852 186.99042,27.5633202 C189.078551,28.4656042 191.127368,29.4238611 193.017806,30.6944471 C193.738936,31.3280609 194.398287,32.0075726 195.032926,32.7352209 C195.720358,33.7561676 196.272999,34.837565 196.78408,35.9559045 C197.021087,36.5928767 197.260341,37.22761 197.497347,37.8657017 C198.08481,39.4620502 198.896923,40.7606227 200.415564,41.6438759 C201.880289,42.500262 203.666264,42.73199 205.302847,42.2819675 C206.891129,41.8487369 208.269363,40.7908481 209.098325,39.373613 C209.89696,38.0145897 210.300208,36.0331472 209.738581,34.5028467 C209.067998,32.6747701 208.331142,30.8858746 207.55385,29.1025764 C206.421609,26.4953563 204.574977,24.2127793 202.600295,22.1932752 C201.28384,20.8499244 199.625916,19.7483767 198.028647,18.7733279 C196.295465,17.7243948 194.369082,16.9452513 192.508972,16.1448381 C189.634562,14.9078359 186.716346,13.7581515 183.755445,12.74728 C180.903501,11.7811868 178.068405,10.7356121 175.177147,9.89601781 C172.233095,9.04410949 169.301399,8.0903304 166.322527,7.37275716 C164.409624,6.9182568 162.49672,6.4592786 160.583817,6.00030039 C159.403276,5.7159578 158.218242,5.3745228 157.020852,5.15622829 C153.598294,4.53492853 150.171243,3.91474822 146.744192,3.29344846 C145.371574,3.0438091 143.954026,2.93074374 142.56793,2.77737785 C140.35624,2.52773849 138.140058,2.27921858 135.929492,2.02957922 C133.13371,1.71501123 130.339052,1.56612318 127.530914,1.39596541 C121.836011,1.04557473 116.135492,0.792576992 110.436096,0.533981957 C106.824831,0.372779857 103.210196,0.157843723 99.5944383,0.0660480827 C98.0701812,0.0279864757 96.5526637,0 95.0396391,0 C92.4202084,0 89.8097637,0.0850788862 87.1858399,0.350390676" id="Fill-235" fill="#2C2C2C"></path>
                <path d="M240.424929,23.443111 C233.960574,23.7975998 227.518673,24.6871872 221.35744,26.7210107 C217.840104,27.8820737 214.419318,29.3807985 211.375749,31.4931479 C209.59968,32.7282498 207.929141,34.11816 206.376484,35.6168848 C205.100004,36.8519866 203.990802,38.2497495 202.863638,39.6217109 C201.749946,40.9712363 201,42.2949603 201,44.1089109 C201,45.7871238 201.674727,47.412612 202.863638,48.6005982 C204.048059,49.7874626 205.679304,50.4582991 207.354333,50.4582991 C208.898009,50.4582991 210.832375,49.8357 211.849518,48.6005982 C213.543632,46.5398516 215.273672,44.5845542 217.300098,42.8547385 C218.840406,41.7475219 220.43348,40.7917483 222.159029,39.9739561 C225.944685,38.4920583 229.869552,37.477951 233.888723,36.8508648 C239.218055,36.227144 244.600152,35.9994186 249.958673,35.9534248 C254.59756,35.91304 259.236448,36.154227 263.841655,36.7128834 C269.762635,37.6428556 275.624114,39.2728311 281.222887,41.4053729 C283.718591,42.3589029 286.218785,43.3124329 288.720102,44.2637194 C291.045159,45.2789484 293.36797,46.2952992 295.69415,47.3071628 C298.256091,48.4289628 300.72485,49.796437 303.225045,51.0494877 C305.601745,52.2464483 307.881895,53.5959737 310.188989,54.9196977 C314.538226,57.4224336 318.78081,60.0440802 322.797736,63.0583569 C329.860476,68.6426774 336.174392,75.0414247 341.749589,82.1053994 C345.065967,86.4815413 348.182509,91.0495109 350.876926,95.833988 C352.551955,98.8146107 354.226984,101.789624 355.902013,104.769125 C357.157162,106.994776 358.257382,109.313537 359.419349,111.587426 C361.546815,115.73472 363.591204,119.913425 365.438002,124.195336 C366.78072,127.487819 368.02801,130.808347 369.120372,134.190574 C370.263253,137.737706 371.305094,141.331953 371.911338,145.013701 C372.65118,151.698507 372.479411,158.443891 371.675577,165.119723 C371.054738,169.321985 370.202629,173.472645 369.081078,177.568337 C367.852873,182.045441 366.227242,186.417096 364.460153,190.711346 C361.751142,196.981087 358.644704,203.070217 355.314854,209.026975 C353.582569,212.124265 351.749243,215.165465 349.890095,218.189838 C348.824678,219.916288 347.76712,221.655078 346.623115,223.333291 C343.577302,227.79469 340.52812,232.256088 337.477816,236.717487 C334.320858,240.69539 331.165022,244.675536 328.006942,248.653439 C327.379367,249.446552 326.651875,250.182453 325.980516,250.945277 C324.696177,252.395764 323.406225,253.846251 322.121887,255.296739 C318.948088,258.878646 315.656409,262.291162 311.925765,265.29983 C309.296463,267.246153 306.549281,268.978212 303.738106,270.646328 C301.869978,271.753545 299.973782,272.799063 298.005735,273.718939 C295.305705,274.771187 292.54056,275.557569 289.68111,276.054526 C287.875851,276.210457 286.100904,276.195873 284.29789,276.024238 C280.246161,275.299555 276.3067,273.831119 272.473892,272.360439 C270.956037,271.78159 268.935225,272.21124 267.588017,272.999865 C266.172325,273.827753 265.114767,275.199715 264.676924,276.781453 C264.228977,278.415915 264.461371,280.19509 265.316848,281.659039 C265.645791,282.087567 265.979225,282.512729 266.308169,282.942379 C267.097408,283.726517 268.031473,284.266103 269.101381,284.567867 C272.565951,285.935341 276.1136,287.289354 279.744326,288.126216 C281.902105,288.626539 284.156434,288.858752 286.362487,288.976541 C288.585381,289.095452 290.822869,288.739841 293.01096,288.415641 C297.177202,287.793042 301.132381,286.281977 304.948349,284.546553 C307.9515,283.179078 310.842385,281.365128 313.617634,279.594927 C319.472377,275.866064 324.836511,271.374377 329.431614,266.163616 C331.883534,263.381552 334.338821,260.598366 336.795231,257.816302 C338.615084,255.75219 340.241839,253.481666 341.948302,251.322201 C343.206819,249.731489 344.465337,248.145264 345.719363,246.554551 C346.565859,245.485476 347.499923,244.424253 348.267832,243.302453 C350.140452,240.555165 352.008581,237.807877 353.8812,235.060588 C356.046837,231.883651 358.195635,228.72354 360.231042,225.463589 C364.936167,217.912753 369.242743,210.139801 373.07106,202.1122 C376.92183,194.03524 380.202283,185.604913 382.259021,176.888527 C384.297796,168.224865 385.23186,159.238125 384.951192,150.346738 C384.806367,145.859538 384.210227,141.376825 383.122357,137.025363 C382.013155,132.590887 380.531226,128.239425 378.904472,123.975463 C376.636671,118.028801 373.988284,112.235826 371.098522,106.570736 C369.703039,103.8313 368.387266,101.035775 366.888496,98.3535508 C365.089973,95.1373502 363.288082,91.9256367 361.489559,88.7094361 C359.967214,85.9879492 358.213597,83.3674244 356.472331,80.7816754 C353.941824,77.0180363 351.148613,73.4159364 348.258851,69.9282602 C342.794798,63.3287107 336.505581,57.4785236 329.699933,52.2857113 C325.260882,48.8978752 320.542285,46.032798 315.722647,43.2496121 C314.358599,42.4609867 313.000164,41.6768485 311.636115,40.8882231 C310.438222,40.1960725 309.149393,39.6351725 307.912207,39.0125735 C305.26382,37.6765096 302.636764,36.36176 299.917648,35.1692866 C296.808965,33.8062996 293.721613,32.4175112 290.55006,31.2037235 C285.674288,29.3415355 280.836688,27.5006617 275.802619,26.0894373 C269.77723,24.3988846 263.614875,23.6887852 257.396386,23.201924 C255.534993,23.0572118 253.666864,23 251.797612,23 C248.002976,23 244.20048,23.2344562 240.424929,23.443111" id="Fill-237" fill="#2C2C2C"></path>
                <path d="M153.601905,46.8251945 C152.258037,48.0850732 150.965899,49.3932791 149.714246,50.7453167 C148.216311,52.3659636 146.911803,54.1877864 145.633161,55.9826359 C142.957795,59.7319271 140.924562,63.9026764 139.06114,68.1048945 C135.437757,76.2924204 132.586957,84.774405 130.28495,93.422725 C128.939958,98.4667355 127.877234,103.555701 126.915721,108.678384 C126.30845,111.905067 125.628082,115.119388 125.23673,118.380911 C124.802643,122.033548 124.367433,125.686185 123.927723,129.338822 C123.81864,130.264906 123.805145,131.208972 123.747791,132.135056 C123.602721,134.400814 123.462149,136.666573 123.317079,138.931208 C123.150642,141.561106 123.11578,144.173023 123.079793,146.807417 C123.053928,148.743876 123.031436,150.679212 123.005571,152.611176 C122.966211,155.513055 123.141645,158.41943 123.335072,161.312318 C123.888363,169.587507 125.355935,177.815493 127.706298,185.765879 C128.988314,190.111955 130.517737,194.344518 132.133753,198.56809 C133.447257,202.009436 134.76526,205.44741 136.083263,208.888755 C137.120122,211.597326 138.34591,214.249702 139.482856,216.918937 C144.056505,227.648698 148.518822,238.535804 155.802699,247.768545 C157.072345,249.380201 158.394847,250.924424 159.848923,252.373116 C161.412083,253.936444 163.253014,255.266004 165.093945,256.482051 C168.528399,258.74781 172.425054,260.226847 176.291346,261.571017 C179.766285,262.778073 183.240099,264.19642 186.891597,264.770727 C187.457259,264.846027 188.024045,264.920204 188.595329,265 C189.751393,264.995504 190.827612,264.705541 191.828485,264.125615 C193.261194,263.287194 194.332915,261.895821 194.771499,260.297652 C195.229202,258.642164 194.991916,256.842819 194.125993,255.362658 C193.361281,254.054452 191.855474,252.676565 190.295688,252.421443 C188.178112,252.07079 186.108892,251.429049 184.08803,250.714257 C181.55436,249.814022 178.986954,248.976725 176.485897,247.988828 C174.39756,246.99531 172.387943,245.883785 170.490784,244.569959 C168.594749,242.960552 166.949495,241.139853 165.388583,239.200021 C160.344861,232.411736 156.700111,224.645669 153.387111,216.900955 C151.778967,213.138177 150.171948,209.372027 148.561556,205.60925 C146.892685,201.263174 145.219317,196.917098 143.550446,192.571022 C140.362274,184.275603 137.990544,175.709327 136.705153,166.912653 C136.17098,162.511507 135.908954,158.097998 135.779628,153.665383 C135.735769,152.111045 135.815614,150.543221 135.832483,148.988884 C135.867344,145.784678 135.854974,142.583845 136.052899,139.383011 C136.201343,136.968899 136.346414,134.550291 136.495982,132.135056 C136.562332,131.077477 136.597194,130.015402 136.719773,128.961195 C137.117873,125.599645 137.512599,122.234724 137.909574,118.868679 C138.64842,114.917088 139.386142,110.965497 140.12049,107.019525 C140.568071,104.608785 141.187713,102.220522 141.763495,99.8412508 C142.501217,96.7943898 143.344649,93.7733782 144.236437,90.7669771 C145.829961,85.3970391 147.684387,80.1327465 149.824455,74.9617367 C151.945404,70.1054156 154.356495,65.4468988 157.473819,61.1525219 C159.033606,59.2362924 160.763203,57.4762834 162.568147,55.7814599 C165.089446,53.4190468 164.953373,49.2044659 162.568147,46.8251945 C161.335612,45.5922891 159.753334,45 158.163184,45 C156.525802,45 154.880547,45.6271296 153.601905,46.8251945" id="Fill-239" fill="#2C2C2C"></path>
                <path d="M92.3994716,23.8228945 C88.1817459,28.6476754 84.1766319,33.7125176 80.654625,39.0813624 C77.0457924,44.5893081 74.1849966,50.6099078 71.6715037,56.6877184 C66.4140958,69.3952559 63.5187924,82.8700917 61.9136299,96.5019769 C61.1143882,103.320163 60.935171,110.177612 61.0186573,117.036182 C61.0743148,122.189645 61.5618745,127.325159 61.9837584,132.451699 C62.4446025,138.09538 62.7919054,143.796272 63.7926273,149.370403 C64.0664622,150.912852 65.3710741,152.376777 66.6667809,153.138466 C68.1149891,153.993264 69.8759926,154.225472 71.4889471,153.774516 C73.0540361,153.340387 74.4109661,152.289278 75.2280182,150.878077 C76.1330093,149.31768 76.1719695,147.744942 75.8591744,146.018521 C75.7890459,145.648333 75.7244832,145.278145 75.6621468,144.905714 C75.1423057,140.500479 74.7805319,136.087392 74.4154187,131.667574 C73.9501219,126.063155 73.5193329,120.484537 73.47592,114.857683 C73.416923,107.941902 73.8054124,101.06987 74.6558591,94.2112997 C76.2743793,82.75567 79.0238601,71.4312888 83.3729375,60.709304 C84.9981366,56.9457281 86.8058924,53.2741382 88.8073363,49.6934126 C90.8021012,46.1205395 93.0951904,42.7664137 95.5474601,39.5042739 C97.3630079,37.1698472 99.2297606,34.8982403 101.178886,32.6703828 C102.296489,31.3949176 103,29.9837168 103,28.2438342 C103,26.5925723 102.339902,24.9884251 101.178886,23.8228945 C100.007853,22.6439024 98.3136381,22 96.6405735,22 C95.0554478,22 93.4881324,22.5765955 92.3994716,23.8228945" id="Fill-241" fill="#2C2C2C"></path>
                <path d="M142.012598,178.283329 C141.981288,178.278854 141.949978,178.275497 141.918667,178.271021 C141.813554,178.256475 141.708441,178.243048 141.603327,178.228502 C141.739751,178.247524 141.876175,178.265427 142.012598,178.283329 M126.023071,163.698206 C123.192838,164.08759 120.383852,164.773488 117.583812,165.368754 C115.701836,165.770446 113.814269,166.15983 111.92782,166.548096 C105.243059,167.940032 98.4330565,168.722157 91.6689015,169.643028 C88.5412206,170.042483 85.4023575,170.380397 82.281386,170.835797 C81.0625186,171.177068 80.0057941,171.798069 79.1056214,172.688729 C77.7648673,174.031433 77,175.875413 77,177.780934 C77,179.681979 77.7648673,181.527079 79.1056214,182.868664 C80.3423804,184.106189 82.3909723,185.159093 84.1946724,184.980066 C85.8585941,184.813347 87.5269888,184.743974 89.1875558,184.551519 C91.484394,184.285217 93.7823505,183.974157 96.075834,183.65974 C99.5747662,183.175248 103.078171,182.689636 106.580458,182.191717 C109.904947,181.715057 113.22049,181.125386 116.504723,180.429418 C120.868044,179.507428 125.226893,178.425432 129.632707,177.729464 C132.43163,177.458685 135.173522,177.477707 137.974681,177.780934 C139.189075,177.910729 140.39676,178.069616 141.603327,178.228502 C141.21083,178.175913 140.818332,178.123324 140.424716,178.069616 C140.901081,178.135632 141.377445,178.196053 141.852692,178.26207 C141.875056,178.264308 141.896303,178.267664 141.918667,178.271021 C142.060682,178.288924 142.203815,178.307945 142.346948,178.328086 L142.012598,178.283329 C142.597431,178.362773 143.186737,178.439978 143.774924,178.519421 C145.07654,178.516065 146.295408,178.188221 147.42258,177.532534 C149.038418,176.588165 150.24834,175.019439 150.742596,173.209027 C151.258099,171.342668 150.990843,169.306234 150.016867,167.636805 C149.173724,166.198992 147.435999,164.546348 145.697156,164.310255 C143.294086,163.986888 140.892135,163.628833 138.481237,163.365887 C137.288089,163.234973 136.105005,163.117487 134.907384,163.042519 C134.429901,163.013427 133.9513,163 133.473817,163 C130.977934,163 128.494352,163.364768 126.023071,163.698206" id="Fill-243" fill="#2C2C2C"></path>
                <path d="M45.3507054,140.976333 C44.6382686,143.62707 45.1639825,146.045938 45.5852204,148.670786 C45.7285969,149.187426 45.9097626,149.681555 46.1309403,150.153172 C47.2812867,159.332262 48.2638048,168.530487 49.4708349,177.702824 C50.2821903,183.870992 51.0813198,190.040286 51.8760036,196.212957 C52.6918048,202.553338 53.1697265,208.933115 54.1289042,215.255488 C54.4678952,217.480756 56.4651632,219.661001 58.3012717,220.747184 C60.3941241,221.992073 62.9515608,222.325244 65.2911542,221.67466 C69.835856,220.408385 72.9912506,215.354539 71.7141994,210.654124 C71.1518078,205.453953 70.7272356,200.234647 70.0937115,195.043481 C70.0014615,194.289343 69.9092115,193.534081 69.8169615,192.779943 C69.6902566,189.216363 69.5635518,185.649405 69.3512657,182.090327 C69.0645127,177.280732 68.7132958,172.501527 68.2609374,167.69981 C68.0141964,165.053576 67.5929584,162.419723 67.2284042,159.790373 C67.1016994,158.888784 66.9416512,158.000703 66.7804916,157.10812 C66.4381663,155.204767 66.1858681,153.159592 65.0533048,151.546638 C65.01885,151.488108 64.9843952,151.430704 64.9477175,151.373299 C64.9110398,151.036751 64.8732506,150.700203 64.8354614,150.363655 C64.6843048,148.978069 64.5186994,147.593608 64.3542054,146.208021 C64.1630367,144.595067 63.9496392,142.968607 63.6639976,141.368035 C63.0426994,137.968789 60.0818078,135.225755 56.9041843,134.333171 C56.0983861,134.10693 55.2825849,134 54.4767867,134 C50.3566572,134 46.4766,136.80269 45.3507054,140.976333" id="Fill-245" fill="#2C2C2C"></path>
                <path d="M12.6864388,247.180992 C12.7915255,247.262097 12.8966122,247.344329 13.0028169,247.426561 C12.8943763,247.348835 12.7881717,247.266603 12.6864388,247.180992 M32.433794,202.369245 C26.9782294,211.752666 20.8932626,220.712537 14.3767695,229.372769 C12.3812402,231.883651 10.3432291,234.362992 8.38012022,236.902035 C7.11907987,238.534277 5.84350626,240.140611 4.7512754,241.896763 C4.36782075,242.520823 4.06150421,243.189941 3.76524917,243.859058 C2.91337617,245.781927 1.9955445,247.937974 2.00001628,250.085009 C2.00448805,251.30384 2.15317454,252.442692 2.50309088,253.609705 C2.93014532,255.048196 3.83456167,256.306453 4.91337721,257.327027 C6.72109196,259.030236 9.11908092,260.024901 11.533839,260.420289 C13.7786697,260.790895 15.9396546,260.816803 18.1979006,260.601649 C20.0100872,260.424795 21.8088584,260.112765 23.6042757,259.83115 C25.8334552,259.478567 28.0346861,258.968281 30.2448605,258.508684 C30.2962859,258.772276 30.3454754,259.035868 30.3913111,259.301713 C30.9581085,264.618609 30.9636982,269.96592 30.9927648,275.315483 C31.0106519,278.545047 31.0933797,281.726173 31.5338495,284.934334 C31.8356942,287.125301 32.3197638,289.193483 33.0754936,291.270678 C33.8927104,293.514588 34.9838233,295.591782 36.3074685,297.567595 C38.2113264,300.409656 40.3600139,303.041069 42.6652136,305.55871 C45.8535886,309.030463 49.5439203,312.189059 53.8804234,314.060111 C55.9933368,314.970292 58.0637683,315.701365 60.3130707,316.180111 C61.3214558,316.396391 62.3387845,316.554096 63.3561131,316.708421 C65.3259297,317.003554 67.2868027,317.320089 69.2689166,317.504829 C72.1912211,317.777433 75.1604793,318.059048 78.0950811,317.989207 C81.8200691,317.896838 85.5104008,317.821365 89.2175017,317.403448 C92.8116902,316.999048 96.3667508,316.417794 99.8077811,315.274436 C103.441098,314.064617 106.7994,312.27805 109.956473,310.125383 C115.047588,306.661515 119.308071,302.110612 124.045916,298.193907 C124.265033,298.031697 124.485267,297.871739 124.707738,297.712908 C126.171126,296.674311 127.275655,295.499412 127.765314,293.708339 C128.235968,291.979222 127.992256,290.091273 127.092312,288.546895 C125.332669,285.515588 121.030822,284.137926 117.995605,286.139648 C112.971567,289.454822 108.830704,293.948276 104.187884,297.759093 C102.090622,299.296713 99.8972166,300.640581 97.5484171,301.73888 C94.798276,302.770719 92.0224221,303.417307 89.1303021,303.873524 C86.8508151,304.142748 84.5679744,304.301579 82.2694824,304.361282 C80.7188947,304.405214 79.147066,304.524618 77.5975962,304.471675 C75.9027938,304.418731 74.2079913,304.361282 72.5187786,304.303832 C71.2096667,304.261026 69.8938471,304.086425 68.5903249,303.959135 C65.5338672,303.507424 62.5120657,303.021919 59.5819356,301.967552 C58.4036231,301.403195 57.2935051,300.761112 56.2202793,300.008636 C53.4578408,297.664471 50.9726522,294.989126 48.678632,292.188743 C47.4332429,290.504684 46.2560483,288.782325 45.3281551,286.895503 C45.0676743,286.202729 44.8250805,285.507703 44.6093174,284.789021 C44.3745493,283.994866 44.2292166,283.178181 44.0984172,282.359244 C43.8043981,279.146577 43.7976904,275.930531 43.7529727,272.702094 C43.6959575,268.935208 43.6355886,265.163816 43.3337438,261.410448 C43.0933859,258.409556 42.7568849,255.334317 41.8356994,252.474233 C40.8574988,249.429408 38.6652115,246.547921 35.4555955,245.703075 C34.0100945,245.320078 32.5914241,245.14773 31.106795,245.288538 C30.2068504,245.376401 29.2979623,245.535232 28.4036075,245.67604 C26.7658201,245.931747 25.1492737,246.366561 23.52043,246.696614 C21.7496073,247.061587 19.973195,247.392767 18.1867212,247.666497 C17.6668774,247.72282 17.1481516,247.767878 16.6305437,247.797166 C16.7535175,247.619185 16.8787272,247.441205 17.0061728,247.265477 C21.8099763,241.411259 26.688682,235.625755 31.0620773,229.430219 C33.3426821,226.200655 35.5819231,222.953068 37.8055129,219.679572 C40.0849998,216.321592 42.1241289,212.78901 44.1677297,209.28121 C46.0414031,206.060658 44.9189878,201.797003 41.7306127,199.91356 C40.676392,199.29288 39.5103768,199 38.3533052,199 C36.000034,199 33.6870088,200.215451 32.433794,202.369245" id="Fill-247" fill="#2C2C2C"></path>
                <path d="M230.008991,284.933278 C230.401764,291.910366 230.591378,298.891947 230.776478,305.878022 C230.939005,312.121567 231.172637,318.357248 231.37128,324.597422 C231.764053,336.752002 232.1952,348.902088 232.530411,361.062284 C233.218892,385.819657 234.003309,410.572537 235.008943,435.320923 C235.180499,439.471678 235.361084,443.623557 235.559728,447.774312 C235.652278,449.682873 235.784331,451.591434 235.943471,453.496625 C236.278682,457.515949 236.503285,462.127275 239.620637,465.071559 C241.797817,467.129525 245.05625,467.642893 247.692794,466.111776 C249.182622,465.243431 250.298864,463.803304 250.757099,462.149742 C251.185988,460.598404 251.093439,458.426981 250.102477,457.064365 C250.053945,456.86778 250.011056,456.666701 249.971553,456.464499 C249.395938,450.941018 249.304517,445.346766 249.081043,439.800818 C248.821451,433.288794 248.565246,426.777894 248.305655,420.26587 C247.856449,408.781927 247.450133,397.302477 247.137495,385.815164 C246.788739,373.115763 246.524634,360.408498 246.092358,347.709097 C245.643152,334.574962 245.201847,321.44195 244.783115,308.308938 C244.531425,300.510686 244.376799,292.722543 243.945652,284.933278 C243.839558,283.055047 243.261685,281.383511 241.903911,280.027635 C240.603697,278.73242 238.818161,278 236.975064,278 C233.337401,278 229.797932,281.155473 230.008991,284.933278" id="Fill-249" fill="#2C2C2C"></path>
                <path d="M114.277544,442.154256 C114.311188,442.405058 114.343711,442.65586 114.377355,442.906663 C114.311188,442.664818 114.277544,442.414015 114.277544,442.154256 M233.990766,306.011197 C227.310126,306.518399 220.734904,307.782487 214.238186,309.388069 C209.646857,310.524517 205.055529,311.592666 200.592049,313.166897 C196.543516,314.592215 192.606009,316.399335 188.789621,318.34977 C186.472649,319.538841 184.2039,320.820844 182.004683,322.211453 C179.454444,323.824872 176.790935,325.329685 174.364058,327.123369 C172.752495,328.316919 171.139811,329.511589 169.523762,330.70066 C168.17911,331.69827 166.75932,332.655574 165.488686,333.744996 C163.070781,335.821952 160.64839,337.895549 158.225999,339.972504 C157.160595,340.887261 156.210704,341.975563 155.215953,342.964217 C154.081018,344.088348 152.950569,345.212479 151.816756,346.336611 C150.799576,347.346538 149.91473,348.541207 148.977175,349.625031 C147.912893,350.863367 146.844125,352.100583 145.779843,353.334441 C144.552947,354.750801 143.475207,356.347426 142.344758,357.838804 C141.45094,359.020037 140.448339,360.165442 139.641997,361.408257 C136.413264,366.389592 133.149765,371.354132 130.311306,376.576193 C124.410092,387.435705 118.754481,398.409422 113.510453,409.60595 C110.996101,414.963488 108.521,420.351257 106.348699,425.85771 C105.270959,428.591902 104.223499,431.320496 103.225384,434.084918 C102.839596,435.156426 102.502031,436.250327 102.147644,437.329672 C101.568962,439.084168 101.095699,440.98198 101.012709,442.828287 C100.911776,444.939952 101.41532,446.842242 102.405584,448.701985 C103.807431,451.325332 107.158405,452.541275 109.966585,451.772073 C111.636464,451.313016 113.089899,450.193363 113.966894,448.701985 C114.772115,447.319214 115.293602,445.102302 114.640902,443.549343 C114.613987,443.501198 114.588193,443.450814 114.56352,443.401549 C115.190426,440.518443 116.315268,437.709234 117.313383,434.95041 C118.114118,432.732378 119.012421,430.544576 119.882688,428.351177 C120.853887,426.08388 121.798171,423.798668 122.846752,421.5672 C124.239627,418.615796 125.632502,415.658793 127.020891,412.70179 C129.663092,407.103526 132.519494,401.597074 135.36244,396.099578 C138.008005,390.987244 140.706279,385.882747 143.659129,380.936121 C145.2763,378.219843 146.887862,375.52148 148.627274,372.884698 C149.590623,371.419072 150.555093,369.954566 151.518443,368.484462 C152.258618,367.360331 153.165893,366.323533 153.989057,365.256503 C154.543067,364.534327 155.09932,363.811032 155.655573,363.088856 C157.36919,361.126104 159.082807,359.158874 160.800911,357.196123 C162.146684,355.656601 163.636005,354.265992 165.095048,352.831717 C166.496894,351.453424 167.862854,350.076251 169.356661,348.803206 C171.295696,347.148359 173.23473,345.493512 175.173765,343.842024 C177.820451,341.85688 180.43125,339.79224 183.222608,338.026548 C185.477899,336.60123 187.729825,335.174792 189.981752,333.749474 C193.638889,331.436272 197.570789,329.495913 201.537454,327.761571 C204.973661,326.382159 208.48725,325.245712 212.087192,324.354468 C214.18099,323.833829 216.279274,323.313191 218.373073,322.797031 C221.990959,321.901309 225.648096,321.18809 229.307477,320.487187 C230.867452,320.306923 232.425184,320.128898 233.990766,320.006856 C235.900642,319.862421 237.557064,319.346261 238.949939,317.960131 C240.255339,316.652376 241,314.859812 241,313.009026 C241,311.15936 240.255339,309.365676 238.949939,308.0624 C237.801547,306.915876 236.013912,306 234.330574,306 C234.216183,306 234.104036,306.003359 233.990766,306.011197" id="Fill-251" fill="#2C2C2C"></path>
                <path d="M141.197175,269.25218 C139.431027,269.738606 137.892661,270.919928 136.966949,272.500254 C136.731313,273.065137 136.490067,273.625536 136.253309,274.190419 C135.915564,275.442351 135.915564,276.699887 136.253309,277.951819 C136.709993,280.87262 137.143115,283.796784 137.548184,286.72431 C138.577128,294.660685 139.084306,302.712503 138.711777,310.712764 C138.536733,314.465198 138.492972,318.252376 138.181035,321.995844 C137.661514,328.282404 137.15658,334.580171 136.387958,340.844315 C136.364394,340.995623 136.340831,341.146931 136.318389,341.298238 C136.235355,341.906832 136.152322,342.515426 136.073776,343.128503 C136.078265,344.371468 136.38908,345.532616 137.011832,346.60522 C137.913981,348.146318 139.413074,349.297378 141.135461,349.770355 C144.607163,350.724155 148.814948,348.627141 149.617232,344.958767 C150.524991,340.803966 150.958113,336.54381 151.422652,332.31952 C151.804158,328.833837 152.211471,325.317891 152.374172,321.815395 L152.939698,309.640159 C153.070981,306.803418 152.95653,303.935294 152.891449,301.098553 C152.820758,298.230429 152.654691,295.363426 152.395492,292.504269 C151.847919,286.374621 150.861614,280.267389 149.911216,274.190419 C149.64304,272.478959 148.092331,270.802244 146.65383,269.966128 C145.566538,269.328394 144.321034,269 143.069919,269 C142.440435,269 141.808706,269.08406 141.197175,269.25218" id="Fill-253" fill="#2C2C2C"></path>
                <path d="M268.443204,54.9959112 C267.183773,56.2491056 266.468111,57.9712662 266.468111,59.7461575 C266.468111,61.5210487 267.183773,63.2476971 268.443204,64.5020134 C268.894846,64.8520551 269.352106,65.2032188 269.803748,65.5532606 C270.807023,66.1321758 271.885572,66.4373404 273.041642,66.4676325 C274.321295,66.6987498 275.53691,67.010646 276.752524,67.4459544 C277.858037,68.0114065 278.895016,68.6576374 279.909526,69.372306 C282.268852,71.3334374 284.347306,73.5503686 286.276335,75.936711 C289.953513,80.9001238 292.943116,86.2932352 295.422655,91.9488779 C299.069498,100.900747 301.437812,110.204902 302.824196,119.758125 C304.315065,131.757153 304.336412,143.911007 302.846666,155.912279 C300.999651,168.712364 297.490997,181.21065 292.560006,193.162557 C287.17962,205.620453 280.311735,217.347974 272.094541,228.157758 C268.615097,232.601718 264.987353,236.937972 261.166369,241.09584 C257.295952,245.310926 253.097475,249.118752 248.666437,252.726875 C246.543044,254.331233 244.424145,255.941201 242.282776,257.521999 C239.592021,259.5123 236.923736,261.55421 234.093669,263.342565 C231.209674,265.165699 230.073827,268.881527 231.846692,271.901759 C233.545406,274.801945 237.503456,275.923874 240.417785,274.148982 C243.129886,272.497503 245.683575,270.5992 248.250746,268.741286 C250.805559,266.892347 253.333408,265.003019 255.865751,263.127155 C262.475233,258.223204 268.316249,252.455368 273.735958,246.289248 C279.608432,239.605919 285.085438,232.545621 289.991712,225.130794 C299.746961,210.396504 307.085588,194.08927 311.732336,177.049416 C316.476827,159.655033 318.021624,141.432667 316.345379,123.490782 C315.664545,116.175807 314.439943,108.88327 312.610904,101.762389 C310.732431,94.4474132 307.976514,87.3085807 304.640877,80.5377408 C301.57263,74.3099144 297.628062,68.4500806 292.953227,63.3183786 C290.530986,60.6627733 287.669461,58.3616974 284.628178,56.4600282 C283.131691,55.5220958 281.393655,54.8949376 279.752238,54.2722672 C277.672661,53.4835513 275.386362,53.3130181 273.200054,53.0280482 C273.054,53.0089754 272.903453,53 272.750658,53 C271.199121,53 269.462208,53.9738341 268.443204,54.9959112" id="Fill-255" fill="#2C2C2C"></path>
                <path d="M233.917326,53.8368663 C232.841495,54.9107093 231.915178,56.7083023 232.077059,58.2769884 C232.498623,62.3445756 232.863978,66.4121628 233.15289,70.4932151 C233.495762,75.2710872 233.433932,80.0265174 233.16638,84.8088779 C232.656007,93.8630465 231.48687,102.90375 230.282883,111.890593 C228.591007,124.072035 226.4326,136.172686 223.77731,148.180203 C221.177104,159.949837 217.892279,171.667855 213.327024,182.837169 C211.820636,186.294337 210.145622,189.653884 208.236781,192.919174 C206.197536,196.41225 203.887366,199.757209 201.452414,202.991081 C195.168302,210.794116 187.502585,217.322453 180.097676,224.022471 C176.347444,227.414558 172.606205,230.812256 168.84698,234.187512 C166.273754,236.496779 166.497464,240.801128 168.84698,243.146302 C170.03298,244.33011 171.657406,245 173.334668,245 C175.096242,245 176.531808,244.286349 177.823479,243.146302 C182.460682,239.048419 187.045048,234.892186 191.642904,230.755029 C195.616846,227.169942 199.678473,223.654424 203.442195,219.84043 C209.540818,213.661064 214.806432,206.800587 219.254773,199.345401 C223.781807,191.748831 226.926111,183.360064 229.657845,174.979151 C232.389578,166.598238 234.576089,158.081552 236.437715,149.469488 C240.341958,131.415012 243.007366,113.123773 244.926325,94.7539884 C245.576095,88.52525 246.063985,82.2482616 245.993162,75.98025 C245.932457,70.0724302 245.2647,64.146657 244.654276,58.2769884 C244.474408,56.5500872 244.083197,55.1081977 242.809512,53.8368663 C241.637003,52.6665233 240.026067,52 238.365667,52 C236.701895,52 235.089835,52.6665233 233.917326,53.8368663" id="Fill-257" fill="#2C2C2C"></path>
                <path d="M210.13983,268.003164 C208.764152,269.357685 208.252405,270.971439 208.109936,272.834326 C206.961069,287.655498 205.776869,302.485649 204,317.249588 C204.004559,318.46832 204.31685,319.602885 204.940293,320.655528 C205.834996,322.168282 207.32123,323.294992 209.035413,323.759592 C210.807723,324.241024 212.735039,323.991891 214.32043,323.079526 C215.68699,322.290604 217.245027,320.668995 217.472977,319.041775 C219.610007,303.707747 220.794207,288.260375 221.987524,272.834326 C222.120875,271.09825 221.168044,269.199452 219.951932,268.003164 C218.657177,266.727199 216.880307,266 215.046451,266 C213.211454,266 211.435725,266.727199 210.13983,268.003164" id="Fill-259" fill="#2C2C2C"></path>
                <path d="M186.865589,277.047223 C186.978588,280.388859 187.124822,283.736095 187.038411,287.08221 C186.947569,290.323059 186.831247,293.547111 186.631837,296.7846 C186.255174,302.88219 185.701258,308.97642 185,315.052733 C185.004431,316.303606 185.320164,317.476091 185.939442,318.560107 C186.840109,320.11334 188.332359,321.272386 190.050607,321.753922 C191.825354,322.247776 193.759629,321.990211 195.347153,321.054015 C196.727512,320.235404 198.268506,318.578024 198.511122,316.898247 C199.445024,310.401991 200.137419,303.875498 200.545101,297.326608 C200.747835,294.072321 200.881882,290.835951 200.968293,287.576064 C201.063567,284.064211 200.925088,280.560197 200.804334,277.047223 C200.674718,273.210613 197.732315,270 193.832746,270 C190.132587,270 186.735973,273.206134 186.865589,277.047223" id="Fill-261" fill="#2C2C2C"></path>
                <path d="M161.472727,275.629287 C161.24157,292.234328 160.178016,308.822619 160.000378,325.42766 C159.960523,329.01308 163.078305,332 166.703952,332 C170.435497,332 173.300487,329.008614 173.406386,325.42766 C173.891476,308.825969 174.768281,292.234328 174.999439,275.629287 C175.048403,272.013718 171.886211,269 168.233236,269 C164.5108,269 161.521692,272.018185 161.472727,275.629287" id="Fill-263" fill="#2C2C2C"></path>
            </g>
        </g>
    </g>
</svg>